{
    "seasons": {
        "tampere": [
            {
                "season": 2019,
                "badgeStartDate": "July 27, 2019 13:00:00",
                "badgeEndDate": "August 25, 2019 20:30:00",
                "cupStartDate": "October 19, 2019 12:00:00",
                "cupEndDate": "October 19, 2019 15:30:00",
                "suspended": false,
                "suspensionEnds": null,
                "cancelled": false
            },
            {
                "season": 2020,
                "badgeStartDate": "April 17, 2020 00:01:00",
                "badgeEndDate": "August 16, 2020 23:59:00",
                "cupStartDate": "September 18, 2020 12:00:00",
                "cupEndDate": "December 31, 2020 23:00:00",
                "suspended": false,
                "suspensionEnds": null,
                "cancelled": false,
                "cupField": "aura-space",
                "groups": [
                    {
                        "group": "A",
                        "battles": [
                            {"player1": "Joponnes", "player2": "PokemonMa5ter09", "battles": [1, 1, 1] },
                            {"player1": "Joponnes", "player2": "Wiliperi", "battles": [1, 1, 1] },
                            {"player1": "Joponnes", "player2": "Taikasimba", "battles": [1, 1, 1] },
                            {"player1": "PokemonMa5ter09", "player2": "Wiliperi", "battles": [1, 1, 1] },
                            {"player1": "PokemonMa5ter09", "player2": "Taikasimba", "battles": [1, 1, 1] },
                            {"player1": "Wiliperi", "player2": "Taikasimba", "battles": [2, 2, 2] }
                        ]
                    },
                    {
                        "group": "B",
                        "battles": [
                            {"player1": "Jiitee33", "player2": "tommijuh", "battles": [1, 1, 1] },
                            {"player1": "Jiitee33", "player2": "WildZeko1340", "battles": [1, 1, 1] },
                            {"player1": "Jiitee33", "player2": "-", "battles": [1, 1, 1] },
                            {"player1": "tommijuh", "player2": "WildZeko1340", "battles": [1, 1, 1] },
                            {"player1": "tommijuh", "player2": "-", "battles": [1, 1, 1] },
                            {"player1": "WildZeko1340", "player2": "-", "battles": [1, 1, 1] }
                        ]
                    },
                    {
                        "group": "C",
                        "battles": [
                            {"player1": "BlueIntensity", "player2": "Laurat4r", "battles": [2, 1, 1] },
                            {"player1": "BlueIntensity", "player2": "Wal0teX", "battles": [1, 1, 2] },
                            {"player1": "BlueIntensity", "player2": "-", "battles": [1, 1, 1] },
                            {"player1": "Laurat4r", "player2": "Wal0teX", "battles": [2, 2, 2] },
                            {"player1": "Laurat4r", "player2": "-", "battles": [1, 1, 1] },
                            {"player1": "Wal0teX", "player2": "-", "battles": [1, 1, 1] }
                        ]
                    },
                    {
                        "group": "D",
                        "battles": [
                            {"player1": "JyconX", "player2": "NorZiee", "battles": [2, 2, 2] },
                            {"player1": "JyconX", "player2": "yllatys", "battles": [1, 2, 2] },
                            {"player1": "JyconX", "player2": "BulbaMikko", "battles": [1, 1, 1] },
                            {"player1": "NorZiee", "player2": "yllatys", "battles": [2, 2, 2] },
                            {"player1": "NorZiee", "player2": "BulbaMikko", "battles": [1, 1, 1] },
                            {"player1": "yllatys", "player2": "BulbaMikko", "battles": [1, 1, 1] }
                        ]
                    }
                ],
                "finals": [
                    {
                        "group": "Quarterfinals",
                        "battles": [
                            {"player1": "PokemonMa5ter09", "player2": "NorZiee", "battles": [2, 2, 2] },
                            {"player1": "BlueIntensity", "player2": "tommijuh", "battles": [1, 1, 1] },
                            {"player1": "Jiitee33", "player2": "Wal0teX", "battles": [1, 1, 1] },
                            {"player1": "yllatys", "player2": "Joponnes", "battles": [1, 1, 2] }
                        ]
                    },
                    {
                        "group": "Semifinals",
                        "battles": [
                            {"player1": "NorZiee", "player2": "BlueIntensity", "battles": [1, 1, 2] },
                            {"player1": "Jiitee33", "player2": "yllatys", "battles": [2, 2, 1] }
                        ]
                    },
                    {
                        "group": "Bronze Battle",
                        "battles": [
                            {"player1": "BlueIntensity", "player2": "Jiitee33", "battles": [2, 2, 2, 2, 2] }
                        ]
                    },
                    {
                        "group": "Final Gold Battle",
                        "battles": [
                            {"player1": "NorZiee", "player2": "yllatys", "battles": [2, 1, 1, 2, 2] }
                        ]
                    }
                ]
            },
            {
                "season": 2021,
                "badgeStartDate": "May 1, 2021 00:01:00",
                "badgeEndDate": "July 31, 2021 23:59:00",
                "cupStartDate": "August 15, 2021 0:01:00",
                "cupEndDate": "November 13, 2021 15:56:00",
                "suspended": false,
                "suspensionEnds": null,
                "cancelled": false,
                "cupField": "semiopen",
                "groups": [
                    {
                        "group": "A",
                        "battles": [
                            {"player1": "NorZiee", "player2": "Jiitee33", "battles": [2, 2, 2] },
                            {"player1": "NorZiee", "player2": "Tervanpolttaja", "battles": [2, 2, 2] },
                            {"player1": "NorZiee", "player2": "JyconX", "battles": [2, 2, 2] },
                            {"player1": "Jiitee33", "player2": "Tervanpolttaja", "battles": [1, 1, 1] },
                            {"player1": "Jiitee33", "player2": "JyconX", "battles": [1, 1, 1] },
                            {"player1": "Tervanpolttaja", "player2": "JyconX", "battles": [1, 1, 2] }
                        ]
                    },
                    {
                        "group": "B",
                        "battles": [
                            {"player1": "yllatys", "player2": "Aarne23", "battles": [1, 1, 1] },
                            {"player1": "yllatys", "player2": "WildZeko1340", "battles": [1, 1, 1] },
                            {"player1": "yllatys", "player2": "Profeetees", "battles": [1, 1, 2] },
                            {"player1": "Aarne23", "player2": "WildZeko1340", "battles": [2, 2, 2] },
                            {"player1": "Aarne23", "player2": "Profeetees", "battles": [2, 2, 2] },
                            {"player1": "WildZeko1340", "player2": "Profeetees", "battles": [1, 2, 2] }
                        ]
                    }
                ],
                "finals": [
                    {
                        "group": "Quarterfinals",
                        "battles": [
                            {"player1": "Jiitee33", "player2": "Aarne23", "battles": [1, 1, 1] },
                            {"player1": "WildZeko1340", "player2": "Tervanpolttaja", "battles": [1, 2, 2] },
                            {"player1": "JyconX", "player2": "Profeetees", "battles": [1, 1, 1] },
                            {"player1": "NorZiee", "player2": "yllatys", "battles": [2, 2, 2] }
                        ]
                    },
                    {
                        "group": "Semifinals",
                        "battles": [
                            {"player1": "Jiitee33", "player2": "Tervanpolttaja", "battles": [1, 1, 1] },
                            {"player1": "JyconX", "player2": "yllatys", "battles": [1, 2, 1] }
                        ]
                    },
                    {
                        "group": "Bronze Battle",
                        "battles": [
                            {"player1": "Tervanpolttaja", "player2": "yllatys", "battles": [1, 1, 1]}
                        ]
                    },
                    {
                        "group": "Final Gold Battle",
                        "battles": [
                            {"player1": "Jiitee33", "player2": "JyconX", "battles": [1, 1, 1]}
                        ]
                    }
                ]
            },
            
            {
                "season": 2022,
                "badgeStartDate": "April 26, 2022 00:01:00",
                "badgeEndDate": "July 17, 2022 23:59:00",
                "cupStartDate": "August 1, 2022 0:01:00",
                "cupEndDate": "December 31, 2022 23:59:00",
                "suspended": false,
                "suspensionEnds": null,
                "cancelled": false,
                "cupField": "tundra",
                "groups": [
                    {
                        "group": "A",
                        "battles": [
                            {"player1": "JyconX", "player2": "yllatys", "battles": [2, 2, 2] },
                            {"player1": "JyconX", "player2": "K1lke", "battles": [2, 1, 1] },
                            {"player1": "JyconX", "player2": "NorZiee", "battles": [2, 2, 2] },
                            {"player1": "JyconX", "player2": "Elmuska12", "battles": [1, 2, 1] },
                            {"player1": "yllatys", "player2": "K1lke", "battles": [1, 1, 1] },
                            {"player1": "yllatys", "player2": "NorZiee", "battles": [1, 1, 1] },
                            {"player1": "yllatys", "player2": "Elmuska12", "battles": [1, 2, 1] },
                            {"player1": "K1lke", "player2": "NorZiee", "battles": [2, 2, 2] },
                            {"player1": "K1lke", "player2": "Elmuska12", "battles": [2, 2, 2] },
                            {"player1": "NorZiee", "player2": "Elmuska12", "battles": [1, 2, 1] }
                        ]
                    },
                    {
                        "group": "B",
                        "battles": [
                            {"player1": "Tervanpolttaja", "player2": "Kaap7", "battles": [2, 2, 2] },
                            {"player1": "Tervanpolttaja", "player2": "Tauroscookie", "battles": [2, 2, 2] },
                            {"player1": "Tervanpolttaja", "player2": "MajorMythical", "battles": [2, 2, 2] },
                            {"player1": "Tervanpolttaja", "player2": "RuoskaSamppa", "battles": [2, 2, 2] },
                            {"player1": "Kaap7", "player2": "Tauroscookie", "battles": [1, 2, 1] },
                            {"player1": "Kaap7", "player2": "MajorMythical", "battles": [1, 1, 1] },
                            {"player1": "Kaap7", "player2": "RuoskaSamppa", "battles": [2, 1, 2] },
                            {"player1": "Tauroscookie", "player2": "MajorMythical", "battles": [1, 1, 1] },
                            {"player1": "Tauroscookie", "player2": "RuoskaSamppa", "battles": [1, 2, 1] },
                            {"player1": "MajorMythical", "player2": "RuoskaSamppa", "battles": [2, 2, 2] }
                        ]
                    }
                ],
                "finals": [
                    {
                        "group": "Quarterfinals",
                        "battles": [
                            {"player1": "yllatys", "player2": "MajorMythical", "battles": [1, 1, 1] },
                            {"player1": "RuoskaSamppa", "player2": "Elmuska12", "battles": [1, 1, 1] },
                            {"player1": "Kaap7", "player2": "NorZiee", "battles": [2, 1, 2] },
                            {"player1": "JyconX", "player2": "Tauroscookie", "battles": [2, 1, 2] }
                        ]
                    },
                    {
                        "group": "Semifinals",
                        "battles": [
                            {"player1": "yllatys", "player2": "RuoskaSamppa", "battles": [1, 1, 2] },
                            {"player1": "NorZiee", "player2": "Tauroscookie", "battles": [2, 2, 2] }
                        ]
                    },
                    {
                        "group": "Bronze Battle",
                        "battles": [
                            {"player1": "RuoskaSamppa", "player2": "NorZiee", "battles": [1, 1, 1] }
                        ]
                    },
                    {
                        "group": "Final Gold Battle",
                        "battles": [
                            {"player1": "yllatys", "player2": "Tauroscookie", "battles": [1, 2, 2, 1, 1] }
                        ]
                    }
                ]
            }
        ]
    }
}