{
    "pokemon": [
        {
            "id": "0194-paldean",
            "name": "Paldean Wooper",
            "types": ["myrkky", "maa"], "engTypes": ["poison", "ground"],
            "categories": ["tavallinen", "variantti"], "engCategories": ["regular", "variant"],
            "evolveCandy": 50,
            "evolveToWith": [null],
            "secondChargeMoveCost": 50000,
            "available": true,
            "shinyExists": true,
            "shadowExists": false,
            "dynamaxExists": false,
            "gigantamaxExists": false,
            "previousForm": [],
            "nextForms": ["Clodsire"],
            "evolvedWith": null,
            "region": "Paldea"
        },
        {
            "id": "0906",
            "name": "Sprigatito",
            "types": ["ruoho"], "engTypes": ["grass"],
            "categories": ["tavallinen", "aloitus"], "engCategories": ["regular", "starter"],
            "evolveCandy": 25,
            "evolveToWith": [null],
            "secondChargeMoveCost": 10000,
            "available": true,
            "shinyExists": true,
            "shadowExists": false,
            "dynamaxExists": false,
            "gigantamaxExists": false,
            "previousForm": [null],
            "nextForms": ["Ivysaur"],
		    "evolvedWith": null,
            "region": "Paldea"
        },
        {
            "id": "0907",
            "name": "Floragato",
            "types": ["ruoho"], "engTypes": ["grass"],
            "categories": ["tavallinen", "aloitus"], "engCategories": ["regular", "starter"],
            "evolveCandy": 100,
            "evolveToWith": [null],
            "secondChargeMoveCost": 10000,
            "available": true,
            "shinyExists": true,
            "shadowExists": false,
            "dynamaxExists": false,
            "gigantamaxExists": false,
            "previousForm": ["Sprigatito"],
            "nextForms": ["Meowscarada"],
            "evolvedWith": null,
            "region": "Paldea"
        },
        {
            "id": "0908",
            "name": "Meowscarada",
            "types": ["ruoho", "pimeys"], "engTypes": ["grass", "dark"],
            "categories": ["tavallinen", "aloitus"], "engCategories": ["regular", "starter"],
            "evolveCandy": null,
            "evolveToWith": [],
            "secondChargeMoveCost": 10000,
            "available": true,
            "shinyExists": true,
            "shadowExists": false,
            "dynamaxExists": false,
            "gigantamaxExists": false,
            "previousForm": ["Floragato"],
            "nextForms": [],
            "evolvedWith": null,
            "region": "Paldea"
        },
        {
            "id": "0909",
            "name": "Fuecoco",
            "types": ["tuli"], "engTypes": ["fire"],
            "categories": ["tavallinen", "aloitus"], "engCategories": ["regular", "starter"],
            "evolveCandy": 25,
            "evolveToWith": [null],
            "secondChargeMoveCost": 10000,
            "available": true,
            "shinyExists": true,
            "shadowExists": false,
            "dynamaxExists": false,
            "gigantamaxExists": false,
            "previousForm": [null],
            "nextForms": ["Crocalor"],
            "evolvedWith": null,
            "region": "Paldea"
        },
        {
            "id": "0910",
            "name": "Crocalor",
            "types": ["tuli"], "engTypes": ["fire"],
            "categories": ["tavallinen", "aloitus"], "engCategories": ["regular", "starter"],
            "evolveCandy": 100,
            "evolveToWith": [null],
            "secondChargeMoveCost": 10000,
            "available": true,
            "shinyExists": true,
            "shadowExists": false,
            "dynamaxExists": false,
            "gigantamaxExists": false,
            "previousForm": ["Fuecoco"],
            "nextForms": ["Skeledirge"],
            "evolvedWith": null,
            "region": "Paldea"
        },
        {
            "id": "0911",
            "name": "Skeledirge",
            "types": ["tuli", "kummitus"], "engTypes": ["fire", "ghost"],
            "categories": ["tavallinen", "aloitus"], "engCategories": ["regular", "starter"],
            "evolveCandy": null,
            "evolveToWith": [],
            "secondChargeMoveCost": 10000,
            "available": true,
            "shinyExists": true,
            "shadowExists": false,
            "dynamaxExists": false,
            "gigantamaxExists": false,
            "previousForm": ["Crocalor"],
            "nextForms": [""],
            "evolvedWith": null,
            "region": "Paldea"
        },
        {
            "id": "0912",
            "name": "Quaxly",
            "types": ["vesi"], "engTypes": ["water"],
            "categories": ["tavallinen", "aloitus"], "engCategories": ["regular", "starter"],
            "evolveCandy": 25,
            "evolveToWith": [null],
            "secondChargeMoveCost": 10000,
            "available": true,
            "shinyExists": false,
            "shadowExists": false,
            "dynamaxExists": false,
            "gigantamaxExists": false,
            "previousForm": [null],
            "nextForms": ["Quaxwell"],
            "evolvedWith": null,
            "region": "Paldea"
        },
        {
            "id": "0913",
            "name": "Quaxwell",
            "types": ["vesi"], "engTypes": ["water"],
            "categories": ["tavallinen", "aloitus"], "engCategories": ["regular", "starter"],
            "evolveCandy": 100,
            "evolveToWith": [null],
            "secondChargeMoveCost": 10000,
            "available": true,
            "shinyExists": false,
            "shadowExists": false,
            "dynamaxExists": false,
            "gigantamaxExists": false,
            "previousForm": ["Quaxly"],
            "nextForms": ["Quaquaval"],
            "evolvedWith": null,
            "region": "Paldea"
        },
        {
            "id": "0914",
            "name": "Quaquaval",
            "types": ["vesi", "taistelu"], "engTypes": ["water", "fighting"],
            "categories": ["tavallinen", "aloitus"], "engCategories": ["regular", "starter"],
            "evolveCandy": null,
            "evolveToWith": [],
            "secondChargeMoveCost": 10000,
            "available": true,
            "shinyExists": false,
            "shadowExists": false,
            "dynamaxExists": false,
            "gigantamaxExists": false,
            "previousForm": ["Quaxwell"],
            "nextForms": [""],
            "evolvedWith": null,
            "region": "Paldea"
        },
        {
            "id": "0915",
            "name": "Lechonk",
            "types": ["normaali"], "engTypes": ["normal"],
            "categories": ["tavallinen"], "engCategories": ["regular"],
            "evolveCandy": 50,
            "evolveToWith": [null],
            "secondChargeMoveCost": 10000,
            "available": true,
            "shinyExists": true,
            "shadowExists": false,
            "dynamaxExists": false,
            "gigantamaxExists": false,
            "previousForm": [],
            "nextForms": ["Oinkologne"],
            "evolvedWith": null,
            "region": "Paldea"
        },
        {
            "id": "0916",
            "name": "Oinkologne",
            "types": ["normaali"], "engTypes": ["normal"],
            "categories": ["tavallinen"], "engCategories": ["regular"],
            "evolveCandy": null,
            "evolveToWith": [],
            "secondChargeMoveCost": 10000,
            "available": true,
            "shinyExists": true,
            "shadowExists": false,
            "dynamaxExists": false,
            "gigantamaxExists": false,
            "previousForm": ["Lechonk"],
            "nextForms": [],
            "evolvedWith": null,
            "region": "Paldea"
        },
        {
            "id": "0919",
            "name": "Nymble",
            "types": ["ötökkä"], "engTypes": ["bug"],
            "categories": ["tavallinen"], "engCategories": ["regular"],
            "evolveCandy": 50,
            "evolveToWith": [null],
            "secondChargeMoveCost": 50000,
            "available": true,
            "shinyExists": true,
            "shadowExists": false,
            "dynamaxExists": false,
            "gigantamaxExists": false,
            "previousForm": [],
            "nextForms": ["Lokix"],
            "evolvedWith": null,
            "region": "Paldea"
        },
        {
            "id": "0920",
            "name": "Lokix",
            "types": ["ötökkä", "pimeys"], "engTypes": ["bug", "dark"],
            "categories": ["tavallinen"], "engCategories": ["regular"],
            "evolveCandy": null,
            "evolveToWith": [],
            "secondChargeMoveCost": 50000,
            "available": true,
            "shinyExists": true,
            "shadowExists": false,
            "dynamaxExists": false,
            "gigantamaxExists": false,
            "previousForm": ["Nymble"],
            "nextForms": [],
            "evolvedWith": null,
            "region": "Paldea"
        },
        {
            "id": "0921",
            "name": "Pawmi",
            "types": ["sähkö"], "engTypes": ["electric"],
            "categories": ["tavallinen"], "engCategories": ["regular"],
            "evolveCandy": 25,
            "evolveToWith": [null],
            "secondChargeMoveCost": 75000,
            "available": true,
            "shinyExists": false,
            "shadowExists": false,
            "dynamaxExists": false,
            "gigantamaxExists": false,
            "previousForm": [null],
            "nextForms": ["Pawmo"],
		    "evolvedWith": null,
            "region": "Paldea"
        },
        {
            "id": "0922",
            "name": "Pawmo",
            "types": ["sähkö", "taistelu"], "engTypes": ["electric", "fighting"],
            "categories": ["tavallinen"], "engCategories": ["regular"],
            "evolveCandy": 100,
            "evolveToWith": ["25-km"],
            "secondChargeMoveCost": 75000,
            "available": true,
            "shinyExists": false,
            "shadowExists": false,
            "dynamaxExists": false,
            "gigantamaxExists": false,
            "previousForm": ["Pawmi"],
            "nextForms": ["Pawmot"],
            "evolvedWith": null,
            "region": "Paldea"
        },
        {
            "id": "0923",
            "name": "Pawmot",
            "types": ["sähkö", "taistelu"], "engTypes": ["electric", "fighting"],
            "categories": ["tavallinen"], "engCategories": ["regular"],
            "evolveCandy": null,
            "evolveToWith": [],
            "secondChargeMoveCost": 75000,
            "available": true,
            "shinyExists": false,
            "shadowExists": false,
            "dynamaxExists": false,
            "gigantamaxExists": false,
            "previousForm": ["Pawmo"],
            "nextForms": [],
            "evolvedWith": "25-km",
            "region": "Paldea"
        },
        {
            "id": "0924",
            "name": "Tandemaus",
            "types": ["normaali"], "engTypes": ["normal"],
            "categories": ["tavallinen"], "engCategories": ["regular"],
            "evolveCandy": 50,
            "evolveToWith": [null],
            "secondChargeMoveCost": 10000,
            "available": true,
            "shinyExists": false,
            "shadowExists": false,
            "dynamaxExists": false,
            "gigantamaxExists": false,
            "previousForm": [],
            "nextForms": ["Maushold"],
            "evolvedWith": null,
            "region": "Paldea"
        },
        {
            "id": "0925",
            "name": "Maushold",
            "types": ["normaali"], "engTypes": ["normal"],
            "categories": ["tavallinen"], "engCategories": ["regular"],
            "evolveCandy": null,
            "evolveToWith": [],
            "secondChargeMoveCost": 10000,
            "available": true,
            "shinyExists": false,
            "shadowExists": false,
            "dynamaxExists": false,
            "gigantamaxExists": false,
            "previousForm": ["Tandemaus"],
            "nextForms": [],
            "evolvedWith": null,
            "region": "Paldea"
        },
        {
            "id": "0926",
            "name": "Fidough",
            "types": ["keiju"], "engTypes": ["fairy"],
            "categories": ["tavallinen"], "engCategories": ["regular"],
            "evolveCandy": 50,
            "evolveToWith": [null],
            "secondChargeMoveCost": 50000,
            "available": true,
            "shinyExists": false,
            "shadowExists": false,
            "dynamaxExists": false,
            "gigantamaxExists": false,
            "previousForm": [],
            "nextForms": ["Dachsbun"],
            "evolvedWith": null,
            "region": "Paldea"
        },
        {
            "id": "0927",
            "name": "Dachsbun",
            "types": ["keiju"], "engTypes": ["fairy"],
            "categories": ["tavallinen"], "engCategories": ["regular"],
            "evolveCandy": null,
            "evolveToWith": [],
            "secondChargeMoveCost": 50000,
            "available": true,
            "shinyExists": false,
            "shadowExists": false,
            "dynamaxExists": false,
            "gigantamaxExists": false,
            "previousForm": ["Fidough"],
            "nextForms": [],
            "evolvedWith": null,
            "region": "Paldea"
        },
        {
            "id": "0928",
            "name": "Smoliv",
            "types": ["ruoho", "normaali"], "engTypes": ["grass", "normal"],
            "categories": ["tavallinen"], "engCategories": ["regular"],
            "evolveCandy": 25,
            "evolveToWith": [null],
            "secondChargeMoveCost": 50000,
            "available": true,
            "shinyExists": true,
            "shadowExists": false,
            "dynamaxExists": false,
            "gigantamaxExists": false,
            "previousForm": [null],
            "nextForms": ["Dolliv"],
		    "evolvedWith": null,
            "region": "Paldea"
        },
        {
            "id": "0929",
            "name": "Dolliv",
            "types": ["ruoho", "normaali"], "engTypes": ["grass", "normal"],
            "categories": ["tavallinen"], "engCategories": ["regular"],
            "evolveCandy": 100,
            "evolveToWith": [null],
            "secondChargeMoveCost": 50000,
            "available": true,
            "shinyExists": true,
            "shadowExists": false,
            "dynamaxExists": false,
            "gigantamaxExists": false,
            "previousForm": ["Smoliv"],
            "nextForms": ["Arboliva"],
            "evolvedWith": null,
            "region": "Paldea"
        },
        {
            "id": "0930",
            "name": "Arboliva",
            "types": ["ruoho", "normaali"], "engTypes": ["grass", "normal"],
            "categories": ["tavallinen"], "engCategories": ["regular"],
            "evolveCandy": null,
            "evolveToWith": [],
            "secondChargeMoveCost": 50000,
            "available": true,
            "shinyExists": true,
            "shadowExists": false,
            "dynamaxExists": false,
            "gigantamaxExists": false,
            "previousForm": ["Dolliv"],
            "nextForms": [],
            "evolvedWith": null,
            "region": "Paldea"
        },
        {
            "id": "0935",
            "name": "Charcadet",
            "types": ["tuli"], "engTypes": ["fire"],
            "categories": ["tavallinen"], "engCategories": ["regular"],
            "evolveCandy": 50,
            "evolveToWith": ["30-catch-psychic", "30-catch-ghost"],
            "secondChargeMoveCost": 50000,
            "available": true,
            "shinyExists": true,
            "shadowExists": false,
            "dynamaxExists": false,
            "gigantamaxExists": false,
            "previousForm": [],
            "nextForms": ["Armarouge", "Ceruledge"],
            "evolvedWith": null,
            "region": "Paldea"
        },
        {
            "id": "0936",
            "name": "Armarouge",
            "types": ["tuli", "psyykkis"], "engTypes": ["fire", "psychic"],
            "categories": ["tavallinen"], "engCategories": ["regular"],
            "evolveCandy": null,
            "evolveToWith": [],
            "secondChargeMoveCost": 50000,
            "available": true,
            "shinyExists": true,
            "shadowExists": false,
            "dynamaxExists": false,
            "gigantamaxExists": false,
            "previousForm": ["Charcadet"],
            "nextForms": [],
            "evolvedWith": "30-catch-psychic",
            "region": "Paldea"
        },
        {
            "id": "0937",
            "name": "Ceruledge",
            "types": ["tuli", "kummitus"], "engTypes": ["fire", "ghost"],
            "categories": ["tavallinen"], "engCategories": ["regular"],
            "evolveCandy": null,
            "evolveToWith": [],
            "secondChargeMoveCost": 50000,
            "available": true,
            "shinyExists": true,
            "shadowExists": false,
            "dynamaxExists": false,
            "gigantamaxExists": false,
            "previousForm": ["Charcadet"],
            "nextForms": [],
            "evolvedWith": "30-catch-ghost",
            "region": "Paldea"
        },
        {
            "id": "0938",
            "name": "Tadbulb",
            "types": ["sähkö"], "engTypes": ["electric"],
            "categories": ["tavallinen"], "engCategories": ["regular"],
            "evolveCandy": 50,
            "evolveToWith": [null],
            "secondChargeMoveCost": 50000,
            "available": true,
            "shinyExists": false,
            "shadowExists": false,
            "dynamaxExists": false,
            "gigantamaxExists": false,
            "previousForm": [],
            "nextForms": ["Bellibolt"],
            "evolvedWith": null,
            "region": "Paldea"
        },
        {
            "id": "0939",
            "name": "Bellibolt",
            "types": ["sähkö"], "engTypes": ["electric"],
            "categories": ["tavallinen"], "engCategories": ["regular"],
            "evolveCandy": null,
            "evolveToWith": [],
            "secondChargeMoveCost": 50000,
            "available": true,
            "shinyExists": false,
            "shadowExists": false,
            "dynamaxExists": false,
            "gigantamaxExists": false,
            "previousForm": ["Tadbulb"],
            "nextForms": [],
            "evolvedWith": null,
            "region": "Paldea"
        },
        {
            "id": "0944",
            "name": "Shroodle",
            "types": ["myrkky", "normaali"], "engTypes": ["poison", "normal"],
            "categories": ["tavallinen"], "engCategories": ["regular"],
            "evolveCandy": 50,
            "evolveToWith": [null],
            "secondChargeMoveCost": 50000,
            "available": true,
            "shinyExists": false,
            "shadowExists": false,
            "dynamaxExists": false,
            "gigantamaxExists": false,
            "previousForm": [],
            "nextForms": ["Grafaiai"],
            "evolvedWith": null,
            "region": "Paldea"
        },
        {
            "id": "0945",
            "name": "Grafaiai",
            "types": ["myrkky", "normaali"], "engTypes": ["poison", "normal"],
            "categories": ["tavallinen"], "engCategories": ["regular"],
            "evolveCandy": null,
            "evolveToWith": [],
            "secondChargeMoveCost": 50000,
            "available": true,
            "shinyExists": false,
            "shadowExists": false,
            "dynamaxExists": false,
            "gigantamaxExists": false,
            "previousForm": ["Shroodle"],
            "nextForms": [],
            "evolvedWith": null,
            "region": "Paldea"
        },
        {
            "id": "0960",
            "name": "Wiglett",
            "types": ["vesi"], "engTypes": ["water"],
            "categories": ["tavallinen"], "engCategories": ["regular"],
            "evolveCandy": 50,
            "evolveToWith": [null],
            "secondChargeMoveCost": 50000,
            "available": true,
            "shinyExists": false,
            "shadowExists": false,
            "dynamaxExists": false,
            "gigantamaxExists": false,
            "previousForm": [],
            "nextForms": ["Wugtrio"],
            "evolvedWith": null,
            "region": "Paldea"
        },
        {
            "id": "0961",
            "name": "Wugtrio",
            "types": ["vesi"], "engTypes": ["water"],
            "categories": ["tavallinen"], "engCategories": ["regular"],
            "evolveCandy": null,
            "evolveToWith": [],
            "secondChargeMoveCost": 50000,
            "available": true,
            "shinyExists": false,
            "shadowExists": false,
            "dynamaxExists": false,
            "gigantamaxExists": false,
            "previousForm": ["Wiglett"],
            "nextForms": [],
            "evolvedWith": null,
            "region": "Paldea"
        },
        {
            "id": "0962",
            "name": "Bombirdier",
            "types": ["lento", "pimeys"], "engTypes": ["flying", "dark"],
            "categories": ["tavallinen"], "engCategories": ["regular"],
            "evolveCandy": null,
            "evolveToWith": [],
            "secondChargeMoveCost": 75000,
            "available": true,
            "shinyExists": true,
            "shadowExists": false,
            "dynamaxExists": false,
            "gigantamaxExists": false,
            "previousForm": [null],
            "nextForms": [],
            "evolvedWith": null,
            "region": "Paldea"
        },
        {
            "id": "0965",
            "name": "Varoom",
            "types": ["teräs", "myrkky"], "engTypes": ["steel", "poison"],
            "categories": ["tavallinen"], "engCategories": ["regular"],
            "evolveCandy": 50,
            "evolveToWith": [null],
            "secondChargeMoveCost": 50000,
            "available": true,
            "shinyExists": false,
            "shadowExists": false,
            "dynamaxExists": false,
            "gigantamaxExists": false,
            "previousForm": [],
            "nextForms": ["Revavroom"],
            "evolvedWith": null,
            "region": "Paldea"
        },
        {
            "id": "0966",
            "name": "Revavroom",
            "types": ["teräs", "myrkky"], "engTypes": ["steel", "poison"],
            "categories": ["tavallinen"], "engCategories": ["regular"],
            "evolveCandy": null,
            "evolveToWith": [],
            "secondChargeMoveCost": 50000,
            "available": true,
            "shinyExists": false,
            "shadowExists": false,
            "dynamaxExists": false,
            "gigantamaxExists": false,
            "previousForm": ["Varoom"],
            "nextForms": [],
            "evolvedWith": null,
            "region": "Paldea"
        },
        {
            "id": "0971",
            "name": "Greavard",
            "types": ["kummitus"], "engTypes": ["ghost"],
            "categories": ["tavallinen"], "engCategories": ["regular"],
            "evolveCandy": 50,
            "evolveToWith": [null],
            "secondChargeMoveCost": 50000,
            "available": true,
            "shinyExists": false,
            "shadowExists": false,
            "dynamaxExists": false,
            "gigantamaxExists": false,
            "previousForm": [],
            "nextForms": ["Houndstone"],
            "evolvedWith": null,
            "region": "Paldea"
        },
        {
            "id": "0972",
            "name": "Houndstone",
            "types": ["kummitus"], "engTypes": ["ghost"],
            "categories": ["tavallinen"], "engCategories": ["regular"],
            "evolveCandy": null,
            "evolveToWith": [],
            "secondChargeMoveCost": 50000,
            "available": true,
            "shinyExists": false,
            "shadowExists": false,
            "dynamaxExists": false,
            "gigantamaxExists": false,
            "previousForm": ["Greavard"],
            "nextForms": [],
            "evolvedWith": null,
            "region": "Paldea"
        },
        {
            "id": "0974",
            "name": "Cetoddle",
            "types": ["jää"], "engTypes": ["ice"],
            "categories": ["tavallinen"], "engCategories": ["regular"],
            "evolveCandy": 50,
            "evolveToWith": [null],
            "secondChargeMoveCost": 50000,
            "available": true,
            "shinyExists": true,
            "shadowExists": false,
            "dynamaxExists": false,
            "gigantamaxExists": false,
            "previousForm": [],
            "nextForms": ["Cetitan"],
            "evolvedWith": null,
            "region": "Paldea"
        },
        {
            "id": "0975",
            "name": "Cetitan",
            "types": ["jää"], "engTypes": ["ice"],
            "categories": ["tavallinen"], "engCategories": ["regular"],
            "evolveCandy": null,
            "evolveToWith": [],
            "secondChargeMoveCost": 50000,
            "available": true,
            "shinyExists": true,
            "shadowExists": false,
            "dynamaxExists": false,
            "gigantamaxExists": false,
            "previousForm": ["Cetoddle"],
            "nextForms": [],
            "evolvedWith": null,
            "region": "Paldea"
        },
        {
            "id": "0979",
            "name": "Annihilape",
            "types": ["taistelu", "kummitus"], "engTypes": ["fighting", "ghost"],
            "categories": ["tavallinen"], "engCategories": ["regular"],
            "evolveCandy": null,
            "evolveToWith": [],
            "secondChargeMoveCost": 50000,
            "available": true,
            "shinyExists": true,
            "shadowExists": true,
            "dynamaxExists": false,
            "gigantamaxExists": false,
            "previousForm": ["Primeape"],
            "nextForms": [],
            "evolvedWith": "defeat-30-psychic-or-ghost",
            "region": "Paldea"
        },
        {
            "id": "0980",
            "name": "Clodsire",
            "types": ["myrkky", "maa"], "engTypes": ["poison", "ground"],
            "categories": ["tavallinen"], "engCategories": ["regular"],
            "evolveCandy": null,
            "evolveToWith": [],
            "secondChargeMoveCost": 50000,
            "available": true,
            "shinyExists": true,
            "shadowExists": false,
            "dynamaxExists": false,
            "gigantamaxExists": false,
            "previousForm": ["Paldean Wooper"],
            "nextForms": [],
            "evolvedWith": null,
            "region": "Paldea"
        },
        {
            "id": "0996",
            "name": "Frigibax",
            "types": ["lohikäärme", "jää"], "engTypes": ["dragon", "ice"],
            "categories": ["tavallinen"], "engCategories": ["regular"],
            "evolveCandy": 25,
            "evolveToWith": [null],
            "secondChargeMoveCost": 75000,
            "available": true,
            "shinyExists": false,
            "shadowExists": false,
            "dynamaxExists": false,
            "gigantamaxExists": false,
            "previousForm": [null],
            "nextForms": ["Arctibax"],
		    "evolvedWith": null,
            "region": "Paldea"
        },
        {
            "id": "0997",
            "name": "Arctibax",
            "types": ["lohikäärme", "jää"], "engTypes": ["dragon", "ice"],
            "categories": ["tavallinen"], "engCategories": ["regular"],
            "evolveCandy": 100,
            "evolveToWith": [null],
            "secondChargeMoveCost": 75000,
            "available": true,
            "shinyExists": false,
            "shadowExists": false,
            "dynamaxExists": false,
            "gigantamaxExists": false,
            "previousForm": ["Frigibax"],
            "nextForms": ["Baxcalibur"],
            "evolvedWith": null,
            "region": "Paldea"
        },
        {
            "id": "0998",
            "name": "Baxcalibur",
            "types": ["lohikäärme", "jää"], "engTypes": ["dragon", "ice"],
            "categories": ["tavallinen"], "engCategories": ["regular"],
            "evolveCandy": null,
            "evolveToWith": [],
            "secondChargeMoveCost": 75000,
            "available": true,
            "shinyExists": false,
            "shadowExists": false,
            "dynamaxExists": false,
            "gigantamaxExists": false,
            "previousForm": ["Arctibax"],
            "nextForms": [],
            "evolvedWith": null,
            "region": "Paldea"
        },
        {
            "id": "0999",
            "name": "Gimmighoul Chest Form",
            "types": ["kummitus"], "engTypes": ["ghost"],
            "categories": ["tavallinen"], "engCategories": ["regular"],
            "evolveCandy": 0,
            "evolveToWith": ["999-coins"],
            "secondChargeMoveCost": 50000,
            "available": false,
            "shinyExists": false,
            "shadowExists": false,
            "dynamaxExists": false,
            "gigantamaxExists": false,
            "previousForm": [null],
            "nextForms": ["Gholdengo"],
            "evolvedWith": null,
            "region": "Paldea"
        },
        {
            "id": "0999-roaming",
            "name": "Gimmighoul Roaming Form",
            "types": ["kummitus"], "engTypes": ["ghost"],
            "categories": ["tavallinen"], "engCategories": ["regular"],
            "evolveCandy": 0,
            "evolveToWith": ["999-coins"],
            "secondChargeMoveCost": 50000,
            "available": true,
            "shinyExists": false,
            "shadowExists": false,
            "dynamaxExists": false,
            "gigantamaxExists": false,
            "previousForm": [null],
            "nextForms": ["Gholdengo"],
            "evolvedWith": null,
            "region": "Paldea"
        },
        {
            "id": "1000",
            "name": "Gholdengo",
            "types": ["kummitus", "teräs"], "engTypes": ["ghost", "steel"],
            "categories": ["tavallinen"], "engCategories": ["regular"],
            "evolveCandy": null,
            "evolveToWith": [],
            "secondChargeMoveCost": 50000,
            "available": true,
            "shinyExists": false,
            "shadowExists": false,
            "dynamaxExists": false,
            "gigantamaxExists": false,
            "previousForm": ["Gimmighoul Chest Form", "Gimmighoul Roaming Form"],
            "nextForms": ["Gholdengo"],
            "evolvedWith": "999-coins",
            "region": "Paldea"
        }
    ]
}