{
    "pokemon": [
        {
            "id": "0058-hisuian",
            "name": "Hisuian Growlithe",
            "types": ["tuli", "kivi"], "engTypes": ["fire", "rock"],
            "categories": ["tavallinen", "variantti"], "engCategories": ["regular", "variant"],
            "evolveCandy": 50,
            "evolveToWith": [null],
            "secondChargeMoveCost": 50000,
            "available": true,
            "shinyExists": true,
            "shadowExists": false,
            "dynamaxExists": false,
            "gigantamaxExists": false,
            "previousForm": [null],
            "nextForms": ["Hisuian Arcanine"],
            "evolvedWith": null,
            "region": "Hisui"
        },
        {
            "id": "0059-hisuian",
            "name": "Hisuian Arcanine",
            "types": ["tuli", "kivi"], "engTypes": ["fire", "rock"],
            "categories": ["tavallinen", "variantti"], "engCategories": ["regular", "variant"],
            "evolveCandy": null,
            "evolveToWith": [],
            "secondChargeMoveCost": 50000,
            "available": true,
            "shinyExists": true,
            "shadowExists": false,
            "dynamaxExists": false,
            "gigantamaxExists": false,
            "previousForm": ["Hisuian Growlithe"],
            "nextForms": [],
            "evolvedWith": null,
            "region": "Hisui"
        },
        {
            "id": "0100-hisuian",
            "name": "Hisuian Voltorb",
            "types": ["sähkö", "ruoho"], "engTypes": ["electric", "grass"],
            "categories": ["tavallinen", "variantti"], "engCategories": ["regular", "variant"],
            "evolveCandy": 50,
            "evolveToWith": [null],
            "secondChargeMoveCost": 50000,
            "available": true,
            "shinyExists": true,
            "shadowExists": false,
            "dynamaxExists": false,
            "gigantamaxExists": false,
            "previousForm": [null],
            "nextForms": ["Hisuian Electrode"],
            "evolvedWith": null,
            "region": "Hisui"
        },
        {
            "id": "0101-hisuian",
            "name": "Hisuian Electrode",
            "types": ["sähkö", "ruoho"], "engTypes": ["electric", "grass"],
            "categories": ["tavallinen", "variantti"], "engCategories": ["regular", "variant"],
            "evolveCandy": null,
            "evolveToWith": [],
            "secondChargeMoveCost": 50000,
            "available": true,
            "shinyExists": true,
            "shadowExists": false,
            "dynamaxExists": false,
            "gigantamaxExists": false,
            "previousForm": ["Hisuian Voltorb"],
            "nextForms": [],
            "evolvedWith": null,
            "region": "Hisui"
        },
        {
            "id": "0157-hisuian",
            "name": "Hisuian Typhlosion",
            "types": ["tuli", "kummitus"], "engTypes": ["fire", "ghost"],
            "categories": ["tavallinen", "variantti", "aloitus"], "engCategories": ["regular", "variant", "starter"],
            "evolveCandy": null,
            "evolveToWith": [],
            "secondChargeMoveCost": 10000,
            "available": true,
            "shinyExists": true,
            "shadowExists": false,
            "dynamaxExists": false,
            "gigantamaxExists": false,
            "previousForm": [null],
            "nextForms": [],
            "evolvedWith": true,
            "region": "Hisui"
        },
        {
            "id": "0211-hisuian",
            "name": "Hisuian Qwilfish",
            "types": ["pimeys", "myrkky"], "engTypes": ["dark", "poison"],
            "categories": ["tavallinen", "variantti"], "engCategories": ["regular", "variant"],
            "evolveCandy": null,
            "evolveToWith": ["10-raids"],
            "secondChargeMoveCost": 50000,
            "available": true,
            "shinyExists": true,
            "shadowExists": false,
            "dynamaxExists": false,
            "gigantamaxExists": false,
            "previousForm": [null],
            "nextForms": ["Overqwil"],
            "evolvedWith": null,
            "region": "Hisui"
        },
        {
            "id": "0215-hisuian",
            "name": "Hisuian Sneasel",
            "types":  ["myrkky", "taistelu"], "engTypes": ["poison", "fighting"],
            "categories": ["tavallinen", "variantti"], "engCategories": ["regular", "variant"],
            "evolveCandy": 50,
            "evolveToWith": ["7-km&daytime"],
            "secondChargeMoveCost": 50000,
            "available": true,
            "shinyExists": true,
            "shadowExists": true,
            "dynamaxExists": false,
            "gigantamaxExists": false,
            "previousForm": [null],
            "nextForms": ["Sneasler"],
            "evolvedWith": null,
            "region": "Hisui"
        },
        {
            "id": "0483-origin",
            "name": "Dialga Origin Forme",
            "types": ["teräs", "lohikäärme"], "engTypes": ["steel", "dragon"],
            "categories": ["legendaarinen"], "engCategories": ["legendary"],
            "evolveCandy": null,
            "evolveToWith": [],
            "secondChargeMoveCost": 100000,
            "available": true,
            "shinyExists": true,
            "shadowExists": false,
            "dynamaxExists": false,
            "gigantamaxExists": false,
            "previousForm": [null],
            "nextForms": [],
            "evolvedWith": null,
            "region": "Hisui"
        },
        {
            "id": "0484-origin",
            "name": "Palkia Origin Forme",
            "types": ["vesi", "lohikäärme"], "engTypes": ["water", "dragon"],
            "categories": ["legendaarinen"], "engCategories": ["legendary"],
            "evolveCandy": null,
            "evolveToWith": [],
            "secondChargeMoveCost": 100000,
            "available": true,
            "shinyExists": true,
            "shadowExists": false,
            "dynamaxExists": false,
            "gigantamaxExists": false,
            "previousForm": [null],
            "nextForms": [],
            "evolvedWith": null,
            "region": "Hisui"
        },
        {
            "id": "0503-hisuian",
            "name": "Hisuian Samurott",
            "types": ["vesi", "pimeys"], "engTypes": ["water", "dark"],
            "categories": ["tavallinen", "variantti", "aloitus"], "engCategories": ["regular", "variant", "starter"],
            "evolveCandy": null,
            "evolveToWith": [],
            "secondChargeMoveCost": 10000,
            "available": true,
            "shinyExists": true,
            "shadowExists": false,
            "dynamaxExists": false,
            "gigantamaxExists": false,
            "previousForm": [null],
            "nextForms": [],
            "evolvedWith": null,
            "region": "Hisui"
        },
        {
            "id": "0549-hisuian",
            "name": "Hisuian Lilligant",
            "types": ["ruoho", "taistelu"], "engTypes": ["grass", "fighting"],
            "categories": ["tavallinen", "variantti"], "engCategories": ["regular", "variant"],
            "evolveCandy": null,
            "evolveToWith": [],
            "secondChargeMoveCost": 10000,
            "available": false,
            "shinyExists": false,
            "shadowExists": false,
            "dynamaxExists": false,
            "gigantamaxExists": false,
            "previousForm": [null],
            "nextForms": [],
            "evolvedWith": "esine",
            "region": "Hisui"
        },
        {
            "id": "0550-white",
            "name": "Basculin White-Striped Form",
            "types": ["vesi"], "engTypes": ["water"],
            "categories": ["tavallinen", "variantti"], "engCategories": ["regular", "variant"],
            "evolveCandy": null,
            "evolveToWith": [null],
            "secondChargeMoveCost": 10000,
            "available": true,
            "shinyExists": true,
            "shadowExists": false,
            "dynamaxExists": false,
            "gigantamaxExists": false,
            "previousForm": [null],
            "nextForms": ["Basculegion (uros)", "Basculegion (naaras)"],
            "evolvedWith": null,
            "region": "Hisui"
        },
        {
            "id": "0570-hisuian",
            "name": "Hisuian Zorua",
            "types": ["normaali", "kummitus"], "engTypes": ["normal", "ghost"],
            "categories": ["tavallinen", "variantti"], "engCategories": ["regular", "variant"],
            "evolveCandy": 50,
            "evolveToWith": [null],
            "secondChargeMoveCost": 75000,
            "available": false,
            "shinyExists": false,
            "shadowExists": false,
            "dynamaxExists": false,
            "gigantamaxExists": false,
            "previousForm": [null],
            "nextForms": ["Hisuian Zoroark"],
            "evolvedWith": null,
            "region": "Hisui"
        },
        {
            "id": "0571-hisuian",
            "name": "Hisuian Zoroark",
            "types": ["normaali", "kummitus"], "engTypes": ["normal", "ghost"],
            "categories": ["tavallinen", "variantti"], "engCategories": ["regular", "variant"],
            "evolveCandy": null,
            "evolveToWith": [],
            "secondChargeMoveCost": 75000,
            "available": false,
            "shinyExists": false,
            "shadowExists": false,
            "dynamaxExists": false,
            "gigantamaxExists": false,
            "previousForm": ["Hisuian Zorua"],
            "nextForms": [],
            "evolvedWith": null,
            "region": "Unova"
        },
        {
            "id": "0628-hisuian",
            "name": "Hisuian Braviary",
            "types": ["psyykkis", "lento"], "engTypes": ["psychic", "flying"],
            "categories": ["tavallinen", "variantti"], "engCategories": ["regular", "variant"],
            "evolveCandy": null,
            "evolveToWith": [],
            "secondChargeMoveCost": 50000,
            "available": true,
            "shinyExists": true,
            "shadowExists": false,
            "dynamaxExists": false,
            "gigantamaxExists": false,
            "previousForm": [null],
            "nextForms": [],
            "evolvedWith": null,
            "region": "Hisui"
        },
        {
            "id": "0705-hisuian",
            "name": "Hisuian Sliggoo",
            "types": ["lohikäärme", "teräs"], "engTypes": ["dragon", "steel"],
            "categories": ["tavallinen", "variantti"], "engCategories": ["regular", "variant"],
            "evolveCandy": 100,
            "evolveToWith": [null],
            "secondChargeMoveCost": 75000,
            "available": false,
            "shinyExists": false,
            "shadowExists": false,
            "dynamaxExists": false,
            "gigantamaxExists": false,
            "previousForm": ["Goomy"],
            "nextForms": ["Hisuian Goodra"],
            "evolvedWith": "???",
            "region": "Hisui"
        },
        {
            "id": "0706-hisuian",
            "name": "Hisuian Goodra",
            "types": ["lohikäärme", "teräs"], "engTypes": ["dragon", "steel"],
            "categories": ["tavallinen", "variantti"], "engCategories": ["regular", "variant"],
            "evolveCandy": null,
            "evolveToWith": [],
            "secondChargeMoveCost": 75000,
            "available": false,
            "shinyExists": false,
            "shadowExists": false,
            "dynamaxExists": false,
            "gigantamaxExists": false,
            "previousForm": ["Hisuian Sliggoo"],
            "nextForms": [],
            "evolvedWith": "???",
            "region": "Hisui"
        },
        {
            "id": "0713-hisuian",
            "name": "Hisuian Avalugg",
            "types": ["jää", "kivi"], "engTypes": ["ice", "rock"],
            "categories": ["tavallinen", "variantti"], "engCategories": ["regular", "variant"],
            "evolveCandy": null,
            "evolveToWith": [],
            "secondChargeMoveCost": 50000,
            "available": true,
            "shinyExists": true,
            "shadowExists": false,
            "dynamaxExists": false,
            "gigantamaxExists": false,
            "previousForm": [null],
            "nextForms": [],
            "evolvedWith": null,
            "region": "Hisui"
        },
        {
            "id": "0724-hisuian",
            "name": "Hisuian Decidueye",
            "types": ["ruoho", "taistelu"], "engTypes": ["grass", "fighting"],
            "categories": ["tavallinen", "variantti", "aloitus"], "engCategories": ["regular", "variant", "starter"],
            "evolveCandy": null,
            "evolveToWith": [],
            "secondChargeMoveCost": 10000,
            "available": true,
            "shinyExists": true,
            "shadowExists": false,
            "dynamaxExists": false,
            "gigantamaxExists": false,
            "previousForm": [null],
            "nextForms": [],
            "evolvedWith": null,
            "region": "Hisui"
        },
        {
            "id": "0899",
            "name": "Wyrdeer",
            "types": ["normaali", "psyykkis"], "engTypes": ["normal", "psychic"],
            "categories": ["tavallinen"], "engCategories": ["regular"],
            "evolveCandy": null,
            "evolveToWith": [],
            "secondChargeMoveCost": 50000,
            "available": true,
            "shinyExists": true,
            "shadowExists": false,
            "dynamaxExists": false,
            "gigantamaxExists": false,
            "previousForm": [null],
            "nextForms": [],
            "evolvedWith": null,
            "region": "Hisui"
        },
        {
            "id": "0900",
            "name": "Kleavor",
            "types": ["ötökkä", "kivi"], "engTypes": ["bug", "rock"],
            "categories": ["tavallinen"], "engCategories": ["regular"],
            "evolveCandy": null,
            "evolveToWith": [],
            "secondChargeMoveCost": 75000,
            "available": true,
            "shinyExists": true,
            "shadowExists": false,
            "dynamaxExists": false,
            "gigantamaxExists": false,
            "previousForm": [null],
            "nextForms": [],
            "evolvedWith": null,
            "region": "Hisui"
        },
        {
            "id": "0901",
            "name": "Ursaluna",
            "types": ["normaali", "maa"], "engTypes": ["normal", "ground"],
            "categories": ["tavallinen"], "engCategories": ["regular"],
            "evolveCandy": null,
            "evolveToWith": [],
            "secondChargeMoveCost": 50000,
            "available": true,
            "shinyExists": true,
            "shadowExists": true,
            "dynamaxExists": false,
            "gigantamaxExists": false,
            "previousForm": "Ursaring",
            "nextForms": [],
            "evolvedWith": "fullmoon&nighttime",
            "region": "Hisui"
        },
        {
            "id": "0902",
            "name": "Basculegion (uros)", "engName": "Basculegion (Male)",
            "types": ["vesi", "kummitus"], "engTypes": ["water", "ghost"],
            "categories": ["tavallinen", "variantti"], "engCategories": ["regular", "variant"],
            "evolveCandy": null,
            "evolveToWith": [],
            "secondChargeMoveCost": 10000,
            "available": false,
            "shinyExists": true,
            "shadowExists": false,
            "dynamaxExists": false,
            "gigantamaxExists": false,
            "previousForm": "Basculin White-Strpied Form",
            "nextForms": [],
            "evolvedWith": null,
            "region": "Hisui"
        },
        {
            "id": "0902-female",
            "name": "Basculegion (naaras)", "engName": "Basculegion (Female)",
            "types": ["vesi", "kummitus"], "engTypes": ["water", "ghost"],
            "categories": ["tavallinen", "variantti"], "engCategories": ["regular", "variant"],
            "evolveCandy": null,
            "evolveToWith": [],
            "secondChargeMoveCost": 10000,
            "available": false,
            "shinyExists": true,
            "shadowExists": false,
            "dynamaxExists": false,
            "gigantamaxExists": false,
            "previousForm": "Basculin White-Strpied Form",
            "nextForms": [],
            "evolvedWith": null,
            "region": "Hisui"
        },
        {
            "id": "0903",
            "name": "Sneasler",
            "types": ["myrkky", "taistelu"], "engTypes": ["poison", "fighting"],
            "categories": ["tavallinen", "variantti"], "engCategories": ["regular", "variant"],
            "evolveCandy": null,
            "evolveToWith": [],
            "secondChargeMoveCost": 50000,
            "available": true,
            "shinyExists": true,
            "shadowExists": true,
            "dynamaxExists": false,
            "gigantamaxExists": false,
            "previousForm": "Hisuian Sneasel",
            "nextForms": [],
            "evolvedWith": "7-km&daytime",
            "region": "Hisui"
        },
        {
            "id": "0904",
            "name": "Overqwil",
            "types": ["pimeys", "myrkky"], "engTypes": ["dark", "poison"],
            "categories": ["tavallinen", "variantti"], "engCategories": ["regular", "variant"],
            "evolveCandy": null,
            "evolveToWith": [],
            "secondChargeMoveCost": 50000,
            "available": true,
            "shinyExists": true,
            "shadowExists": false,
            "dynamaxExists": false,
            "gigantamaxExists": false,
            "previousForm": "Hisuian Qwilfish",
            "nextForms": [],
            "evolvedWith": "10-raids",
            "region": "Hisui"
        },
        {
            "id": "0905",
            "name": "Enamorus Incarnate Forme",
            "types": ["keiju", "lento"], "engTypes": ["fairy", "flying"],
            "categories": ["legendaarinen"], "engCategories": ["legendary"],
            "evolveCandy": null,
            "evolveToWith": [],
            "secondChargeMoveCost": 100000,
            "available": true,
            "shinyExists": false,
            "shadowExists": false,
            "dynamaxExists": false,
            "gigantamaxExists": false,
            "previousForm": [null],
            "nextForms": [],
            "evolvedWith": null,
            "region": "Hisui"
        },
        {
            "id": "0905-therian",
            "name": "Enamorus Therian Forme",
            "types": ["keiju", "lento"], "engTypes": ["fairy", "flying"],
            "categories": ["legendaarinen"], "engCategories": ["legendary"],
            "evolveCandy": null,
            "evolveToWith": [],
            "secondChargeMoveCost": 100000,
            "available": false,
            "shinyExists": false,
            "shadowExists": false,
            "dynamaxExists": false,
            "gigantamaxExists": false,
            "previousForm": [null],
            "nextForms": [],
            "evolvedWith": null,
            "region": "Hisui"
        }
    ]
}